AirBnB Boston
…
3.1 Select data of interest

Only require some of the fields for later analysis. In particular we are interested in price and accomodation description. We also only want to analyse listings for an entire property.

stm_df <- listings %>%
  dplyr::filter(grepl('Entire', room_type)) %>%
  dplyr::transmute(id, price=log(as.numeric(gsub('\\$', '', price))), comments=description) %>%
  dplyr::filter(!is.na(price)) 

## Warning in evalq(log(as.numeric(gsub("\\$", "", price))), <environment>):
## NAs introduced by coercion

stm_df

## # A tibble: 2,118 x 3
##          id price comments                                                
##       <int> <dbl> <chr>                                                   
##  1 12147973  5.52 Cozy, sunny, family home.  Master bedroom high ceilings
##  2  5706985  4.61 "It's a 5 minute walk to Rosi Square to catch the train
##  3   849408  5.43 "This is a cozy and spacious two bedroom unit with ever
##  4  2684840  4.53 Clean, sunny 2 bedroom in amazing Roslindale Village, 6
##  5 13547301  5.01 My place is close to Public Transportation. The train s
##  6  5434353  4.98 Enjoy the full space of our home as you explore some of
##  7 13251243  4.79 "Lovely sun-filled private guest cottage set on single 
##  8  6400432  5.01 Three bedroom in Boston's Roslindale neighborhood - spa
##  9  5498472  5.16 Our spacious, modern, immaculate town home is located i
## 10  7093109  5.30 New totally renovated 2 bedroom apt located 30 minutes 
## # ... with 2,108 more rows

3.2 Tokenise and remove stopwords

Tidy the comments using the tidytext bag of words approach bu tokenising and then removing stopwords with an anti-join.

tidy_comments <- stm_df %>%
  unnest_tokens(word, comments) %>%
  anti_join(stop_words)

## Joining, by = "word"

tidy_comments

## # A tibble: 154,330 x 3
##          id price word    
##       <int> <dbl> <chr>   
##  1 12147973  5.52 cozy    
##  2 12147973  5.52 sunny   
##  3 12147973  5.52 family  
##  4 12147973  5.52 home    
##  5 12147973  5.52 master  
##  6 12147973  5.52 bedroom 
##  7 12147973  5.52 ceilings
##  8 12147973  5.52 deck    
##  9 12147973  5.52 garden  
## 10 12147973  5.52 hens    
## # ... with 154,320 more rows

3.3 Examine the number of words extracted

We can count the number of words present following tokensiation:

tidy_comments %>%
  count(word, sort=TRUE)

## # A tibble: 7,650 x 2
##    word          n
##    <chr>     <int>
##  1 boston     2825
##  2 apartment  2345
##  3 kitchen    1659
##  4 walk       1590
##  5 bedroom    1582
##  6 bed        1363
##  7 located    1248
##  8 living     1186
##  9 2          1142
## 10 street     1131
## # ... with 7,640 more rows

Then extract the most common 1000 words to be used in the analysis

common_words <- tidy_comments %>%
  count(word, sort=TRUE) %>%
  top_n(1000,n) %>% dplyr::select(-n)
common_words

## # A tibble: 1,032 x 1
##    word     
##    <chr>    
##  1 boston   
##  2 apartment
##  3 kitchen  
##  4 walk     
##  5 bedroom  
##  6 bed      
##  7 located  
##  8 living   
##  9 2        
## 10 street   
## # ... with 1,022 more rows
…
From this analysis the topic modelling seems to have picked out topics associated with the words luxury and studio which are associated with price in the expected direction.

5.2.3 Combined plot of all topics

In the plot below, the top terms for each topic are plotted, and colour represents the steepness of the slope of the regression line.

First extract topic betas with tidytext tidier.

topic_top_terms <- tidy(topic_model) %>%
  group_by(topic) %>%
  top_n(10,beta) %>%
  ungroup()
topic_top_terms

## # A tibble: 80 x 3
##    topic term        beta
##    <int> <chr>      <dbl>
##  1     2 1         0.0169
##  2     7 10        0.0206
##  3     2 2         0.0237
##  4     3 24        0.0179
##  5     7 5         0.0224
##  6     5 amenities 0.0245
##  7     1 apartment 0.0149
##  8     3 apartment 0.0154
##  9     4 apartment 0.0185
## 10     5 apartment 0.0170
## # ... with 70 more rows
…
